{
  "project_info": {
    "project_number": "463909835811",
    "firebase_url": "https://projeto-maquinas.firebaseio.com",
    "project_id": "projeto-maquinas",
    "storage_bucket": "projeto-maquinas.appspot.com"
  },
  "client": [
    {
      "client_info": {
        "mobilesdk_app_id": "1:463909835811:android:a2e384f196cc3839fd0d96",
        "android_client_info": {
          "package_name": "com.dadosmaq"
        }
      },
      "oauth_client": [
        {
          "client_id": "463909835811-dvinntosu0ov58n39utjgrggd4qde735.apps.googleusercontent.com",
          "client_type": 3
        }
      ],
      "api_key": [
        {
          "current_key": "AIzaSyCV-0uoAkf7w2GlJiGjJl2FIMkn0YSrqD8"
        }
      ],
      "services": {
        "appinvite_service": {
          "other_platform_oauth_client": [
            {
              "client_id": "463909835811-dvinntosu0ov58n39utjgrggd4qde735.apps.googleusercontent.com",
              "client_type": 3
            }
          ]
        }
      }
    }
  ],
  "configuration_version": "1"
}